^C:\USERS\SWATHI\DOCUMENTS\VISUAL STUDIO 2012\PROJECTS\HARRTRAINER\HARRTRAINER\RELEASE\HARRTRAINER.OBJ|C:\USERS\SWATHI\DOCUMENTS\VISUAL STUDIO 2012\PROJECTS\HARRTRAINER\HARRTRAINER\RELEASE\STDAFX.OBJ
C:\USERS\SWATHI\DOCUMENTS\VISUAL STUDIO 2012\PROJECTS\HARRTRAINER\RELEASE\HARRTRAINER.EXE
C:\USERS\SWATHI\DOCUMENTS\VISUAL STUDIO 2012\PROJECTS\HARRTRAINER\RELEASE\HARRTRAINER.PDB
